{
  "info": {
    "_postman_id": "18107a9b-f1fc-4f8e-a71b-2157fbe5cc34",
    "name": "apollo",
    "schema": "https://schema.getpostman.com/json/collection/v2.1.0/collection.json"
  },
  "item": [
    {
      "name": "Firmware Management",
      "item": [
        {
          "name": "Update Device Firmware",
          "request": {
            "method": "POST",
            "header": [
              {
                "key": "Content-Type",
                "value": "application/json",
                "type": "text"
              }
            ],
            "body": {
              "mode": "raw",
              "raw": "{\n    \"fileName\": \"{{firmwareName}}\"\n}"
            },
            "url": {
              "raw": "{{host}}/iokeyfirmwaremanagement/v1/update/{{imei}}",
              "host": ["{{host}}"],
              "path": ["iokeyfirmwaremanagement", "v1", "update", "{{imei}}"]
            }
          },
          "response": []
        },
        {
          "name": "List available Versions",
          "protocolProfileBehavior": {
            "disableBodyPruning": true
          },
          "request": {
            "method": "GET",
            "header": [
              {
                "key": "Content-Type",
                "type": "text",
                "value": "application/json"
              }
            ],
            "body": {
              "mode": "raw",
              "raw": ""
            },
            "url": {
              "raw": "{{host}}/iokeyfirmwaremanagement/v1/listfirmware",
              "host": ["{{host}}"],
              "path": ["iokeyfirmwaremanagement", "v1", "listfirmware"]
            }
          },
          "response": []
        },
        {
          "name": "Download Firmware",
          "request": {
            "auth": {
              "type": "basic",
              "basic": [
                {
                  "key": "username",
                  "value": "{{tenantId}}/device_io-key-{{imei}}",
                  "type": "string"
                },
                {
                  "key": "password",
                  "value": "&04co8$gs$&#18kiLcmU",
                  "type": "string"
                }
              ]
            },
            "method": "GET",
            "header": [],
            "url": {
              "raw": "{{host}}/iokeyfirmwaremanagement/v1/firmware/{{firmwareName}}",
              "host": ["{{host}}"],
              "path": [
                "iokeyfirmwaremanagement",
                "v1",
                "firmware",
                "{{firmwareName}}"
              ]
            }
          },
          "response": []
        },
        {
          "name": "Revoke Firmware Update Permission",
          "request": {
            "method": "POST",
            "header": [
              {
                "key": "Content-Type",
                "type": "text",
                "value": "application/json"
              }
            ],
            "body": {
              "mode": "raw",
              "raw": ""
            },
            "url": {
              "raw": "{{host}}/iokeyfirmwaremanagement/v1/revoke/{{imei}}",
              "host": ["{{host}}"],
              "path": ["iokeyfirmwaremanagement", "v1", "revoke", "{{imei}}"]
            }
          },
          "response": []
        }
      ]
    },
    {
      "name": "Device Management",
      "item": [
        {
          "name": "Device Commands",
          "item": [
            {
              "name": "Restart device",
              "request": {
                "method": "POST",
                "header": [
                  {
                    "key": "Content-Type",
                    "type": "text",
                    "value": "application/json"
                  }
                ],
                "body": {
                  "mode": "raw",
                  "raw": "{\n    \"imei\": \"{{imei}}\",\n    \"command\": \"restartdevice\",\n    \"payload\": null\n}"
                },
                "url": {
                  "raw": "{{host}}/hubmanagement/v1/devicecommands",
                  "host": ["{{host}}"],
                  "path": ["hubmanagement", "v1", "devicecommands"]
                }
              },
              "response": []
            },
            {
              "name": "Configure device",
              "request": {
                "method": "POST",
                "header": [
                  {
                    "key": "Content-Type",
                    "type": "text",
                    "value": "application/json"
                  }
                ],
                "body": {
                  "mode": "raw",
                  "raw": "{\n    \"imei\": \"{{imei}}\",\n    \"command\": \"updateconfiguration\",\n    \"payload\": \"<1>{[I,1],[H,20.5],[A,4],[AT,Threshold exceeded],[AX,\\\\\\\"Threshold exceeded\\\\\\\"],[D,1],[T,245]}\"\n}"
                },
                "url": {
                  "raw": "{{host}}/hubmanagement/v1/devicecommands",
                  "host": ["{{host}}"],
                  "path": ["hubmanagement", "v1", "devicecommands"]
                }
              },
              "response": []
            },
            {
              "name": "Erase IODD data",
              "request": {
                "method": "POST",
                "header": [
                  {
                    "key": "Content-Type",
                    "type": "text",
                    "value": "application/json"
                  }
                ],
                "body": {
                  "mode": "raw",
                  "raw": "{\n    \"imei\": \"{{imei}}\",\n    \"command\": \"updateconfiguration\",\n    \"payload\": \"*RSS_IOKEY*10*\"\n}"
                },
                "url": {
                  "raw": "{{host}}/hubmanagement/v1/devicecommands",
                  "host": ["{{host}}"],
                  "path": ["hubmanagement", "v1", "devicecommands"]
                }
              },
              "response": []
            },
            {
              "name": "Erase Config",
              "request": {
                "method": "POST",
                "header": [
                  {
                    "key": "Content-Type",
                    "type": "text",
                    "value": "application/json"
                  }
                ],
                "body": {
                  "mode": "raw",
                  "raw": "{\n    \"imei\": \"{{imei}}\",\n    \"command\": \"updateconfiguration\",\n    \"payload\": \"*RSS_IOKEY*08*\"\n}"
                },
                "url": {
                  "raw": "{{host}}/hubmanagement/v1/devicecommands",
                  "host": ["{{host}}"],
                  "path": ["hubmanagement", "v1", "devicecommands"]
                }
              },
              "response": []
            },
            {
              "name": "Erase Credentials",
              "request": {
                "method": "POST",
                "header": [
                  {
                    "key": "Content-Type",
                    "type": "text",
                    "value": "application/json"
                  }
                ],
                "body": {
                  "mode": "raw",
                  "raw": "{\n    \"imei\": \"{{imei}}\",\n    \"command\": \"updateconfiguration\",\n    \"payload\": \"*RSS_IOKEY*01*\"\n}"
                },
                "url": {
                  "raw": "{{host}}/hubmanagement/v1/devicecommands",
                  "host": ["{{host}}"],
                  "path": ["hubmanagement", "v1", "devicecommands"]
                }
              },
              "response": []
            },
            {
              "name": "Request firmware",
              "request": {
                "method": "POST",
                "header": [
                  {
                    "key": "Content-Type",
                    "type": "text",
                    "value": "application/json"
                  }
                ],
                "body": {
                  "mode": "raw",
                  "raw": "{\n    \"imei\": \"{{imei}}\",\n    \"command\": \"updateconfiguration\",\n    \"payload\": \"*RSS_IOKEY*02*\"\n}"
                },
                "url": {
                  "raw": "{{host}}/hubmanagement/v1/devicecommands",
                  "host": ["{{host}}"],
                  "path": ["hubmanagement", "v1", "devicecommands"]
                }
              },
              "response": []
            }
          ]
        },
        {
          "name": "Provision Device",
          "request": {
            "method": "POST",
            "header": [
              {
                "key": "Content-Type",
                "type": "text",
                "value": "application/json"
              }
            ],
            "body": {
              "mode": "raw",
              "raw": "{\n    \"serialNumber\": \"{{imei}}\",\n    \"serialNumberType\": \"imei\",\n    \"sendingInterval\": {{sendingInterval}},\n    \"externalReference\": \"1234567\",\n    \"customerId\": \"{{tenantId}}\",\n    \"services\": \"[]\"\n}"
            },
            "url": {
              "raw": "{{host}}/hubmanagement/v1/provision",
              "host": ["{{host}}"],
              "path": ["hubmanagement", "v1", "provision"]
            }
          },
          "response": []
        },
        {
          "name": "Get all datasources",
          "request": {
            "method": "GET",
            "header": [],
            "url": {
              "raw": "{{host}}/hubmanagement/v1/datasources/{{imei}}/{{sensorName}}/{{slot}}",
              "host": ["{{host}}"],
              "path": [
                "hubmanagement",
                "v1",
                "datasources",
                "{{imei}}",
                "{{sensorName}}",
                "{{slot}}"
              ]
            }
          },
          "response": []
        },
        {
          "name": "Subscribe to datasources",
          "request": {
            "method": "POST",
            "header": [],
            "body": {
              "mode": "raw",
              "raw": "[\"Distance\", \"Device status\", \"OUT1\", \"OUT2\"]",
              "options": {
                "raw": {
                  "language": "json"
                }
              }
            },
            "url": {
              "raw": "{{host}}/hubmanagement/v1/datasources/{{imei}}/{{sensorName}}/{{slot}}/subscribe",
              "host": ["{{host}}"],
              "path": [
                "hubmanagement",
                "v1",
                "datasources",
                "{{imei}}",
                "{{sensorName}}",
                "{{slot}}",
                "subscribe"
              ]
            }
          },
          "response": []
        },
        {
          "name": "Unsubscribe to datasources",
          "request": {
            "method": "POST",
            "header": [],
            "body": {
              "mode": "raw",
              "raw": "[\"Device status\", \"OUT1\", \"OUT2\"]",
              "options": {
                "raw": {
                  "language": "json"
                }
              }
            },
            "url": {
              "raw": "{{host}}/hubmanagement/v1/datasources/{{imei}}/{{sensorName}}/{{slot}}/unsubscribe",
              "host": ["{{host}}"],
              "path": [
                "hubmanagement",
                "v1",
                "datasources",
                "{{imei}}",
                "{{sensorName}}",
                "{{slot}}",
                "unsubscribe"
              ]
            }
          },
          "response": []
        },
        {
          "name": "Get all devices",
          "request": {
            "method": "GET",
            "header": [],
            "url": {
              "raw": "{{host}}/hubmanagement/v1/device",
              "host": ["{{host}}"],
              "path": ["hubmanagement", "v1", "device"]
            }
          },
          "response": []
        },
        {
          "name": "Get all devices (detailed)",
          "request": {
            "method": "GET",
            "header": [],
            "url": {
              "raw": "{{host}}/hubmanagement/v1/device?detailed=true",
              "host": ["{{host}}"],
              "path": ["hubmanagement", "v1", "device"],
              "query": [
                {
                  "key": "detailed",
                  "value": "true"
                }
              ]
            }
          },
          "response": []
        },
        {
          "name": "Get all sensors for iokey",
          "request": {
            "method": "GET",
            "header": [],
            "url": {
              "raw": "{{host}}/hubmanagement/v1/device/{{imei}}/sensors",
              "host": ["{{host}}"],
              "path": ["hubmanagement", "v1", "device", "{{imei}}", "sensors"]
            }
          },
          "response": []
        },
        {
          "name": "Get sensor",
          "request": {
            "method": "GET",
            "header": [],
            "url": {
              "raw": "{{host}}/hubmanagement/v1/device/{{imei}}/sensors/{{sensorName}}/{{slot}}",
              "host": ["{{host}}"],
              "path": [
                "hubmanagement",
                "v1",
                "device",
                "{{imei}}",
                "sensors",
                "{{sensorName}}",
                "{{slot}}"
              ]
            }
          },
          "response": []
        },
        {
          "name": "Get device",
          "request": {
            "method": "GET",
            "header": [],
            "url": {
              "raw": "{{host}}/hubmanagement/v1/device/{{imei}}",
              "host": ["{{host}}"],
              "path": ["hubmanagement", "v1", "device", "{{imei}}"]
            }
          },
          "response": []
        }
      ]
    }
  ]
}
